lab0_reproducibile_research_rstudio_rmd_git.knit
…
Compute mean Ozone, mean Temp, and the
count of complete days per month.

Plot Ozone against Temp, coloured by
month, with a smoothed trend line
(geom_smooth(method = "lm")).

aq <- as_tibble(airquality)

aq %>%
  filter(!is.na(Ozone))

## # A tibble: 116 × 6
##    Ozone Solar.R  Wind  Temp Month   Day
##    <int>   <int> <dbl> <int> <int> <int>
##  1    41     190   7.4    67     5     1
##  2    36     118   8      72     5     2
##  3    12     149  12.6    74     5     3
##  4    18     313  11.5    62     5     4
##  5    28      NA  14.9    66     5     6
##  6    23     299   8.6    65     5     7
##  7    19      99  13.8    59     5     8
##  8     8      19  20.1    61     5     9
##  9     7      NA   6.9    74     5    11
## 10    16     256   9.7    69     5    12
## # ℹ 106 more rows
…
